<svg viewBox="0 0 13 13" fill="none" xmlns="http://www.w3.org/2000/svg">
  <g clip-path="url(#clip0)">
    <path d="M12.5019 2.65452C12.003 1.96813 11.1295 1.3486 10.0421 0.910103C8.96061 0.473994 7.7049 0.232834 6.50623 0.231107C5.30746 0.228111 4.05019 0.466783 2.96713 0.899515C1.87787 1.33474 1.00222 1.95158 0.501596 2.63634C0.0207479 3.29403 -0.117834 4.00291 0.100805 4.68635C0.242637 5.12972 0.656377 5.42804 1.1306 5.42872L2.75435 5.43024C2.75489 5.43024 2.75542 5.43024 2.75598 5.43024C3.07976 5.43022 3.38397 5.28849 3.5907 5.04121C3.79524 4.79657 3.87997 4.47685 3.82317 4.16399C3.82152 4.15482 3.81949 4.14568 3.81718 4.13662L3.73174 3.80446C4.20487 3.57871 5.27686 3.14255 6.50123 3.14948C7.7247 3.15575 8.79596 3.59166 9.26967 3.81751L9.18286 4.14779C9.1804 4.15713 9.17831 4.16655 9.17654 4.17602C9.11887 4.48871 9.20266 4.80866 9.4065 5.05388C9.61287 5.3022 9.91731 5.44484 10.2419 5.44533L11.8657 5.44685C11.8662 5.44685 11.8668 5.44685 11.8673 5.44685C12.3406 5.44683 12.7545 5.14988 12.8974 4.70745C13.1181 4.02416 12.9813 3.31427 12.5019 2.65452ZM12.1591 4.46893C12.1206 4.58796 12.0007 4.67099 11.867 4.67099C11.8669 4.67099 11.8667 4.67099 11.8666 4.67099L10.2428 4.66947C10.1493 4.66934 10.0619 4.62869 10.0031 4.55792C9.97114 4.51946 9.92124 4.43945 9.93757 4.32819L10.0991 3.71366C10.1434 3.54524 10.07 3.36802 9.91967 3.28012C9.85703 3.2435 8.36399 2.38312 6.50519 2.37354C6.49485 2.37349 6.48482 2.37347 6.47452 2.37347C4.62768 2.37347 3.14527 3.2301 3.08273 3.26676C2.93336 3.35436 2.86013 3.53031 2.90327 3.69805L3.06161 4.31356C3.07778 4.42506 3.02758 4.50506 2.99546 4.5435C2.93658 4.61394 2.84929 4.65431 2.75575 4.65431C2.7556 4.65431 2.75545 4.65431 2.75529 4.65431L1.13151 4.65278C0.997881 4.65258 0.877911 4.56915 0.839774 4.44986C0.697789 4.00601 0.794731 3.54987 1.12791 3.09415C2.01295 1.88363 4.26764 1.00687 6.493 1.00687C6.49696 1.00687 6.5012 1.00687 6.50516 1.00687C8.73273 1.01007 10.9908 1.8948 11.8743 3.11056C12.2067 3.56802 12.3025 4.02503 12.1591 4.46893Z" fill="#334C5C"/>
    <path d="M10.1714 7.10446L8.96045 5.83302C8.8872 5.75614 8.78572 5.71265 8.67956 5.71265H7.89702V5.18394C7.89702 4.96969 7.72335 4.79602 7.5091 4.79602C7.29488 4.79602 7.12118 4.96969 7.12118 5.18394V5.71265H5.87902V5.18394C5.87902 4.96969 5.70535 4.79602 5.4911 4.79602C5.27686 4.79602 5.10319 4.96969 5.10319 5.18394V5.71265H4.32067C4.21451 5.71265 4.11298 5.75617 4.03978 5.83302L2.8289 7.10446C1.87949 8.10135 1.35662 9.40851 1.35662 10.7851V12.381C1.35662 12.5953 1.53029 12.7689 1.74454 12.7689H11.2557C11.4699 12.7689 11.6436 12.5953 11.6436 12.381V10.7851C11.6436 9.40848 11.1208 8.10135 10.1714 7.10446ZM2.13246 11.9931V10.7851C2.13246 9.60861 2.57931 8.4915 3.39074 7.63949L4.48696 6.48843H8.5133L9.60952 7.63949C10.4209 8.49145 10.8677 9.60861 10.8677 10.7851V11.9931H2.13246Z" fill="#334C5C"/>
    <path d="M6.50013 7.29053C5.38065 7.29053 4.46992 8.20129 4.46992 9.32074C4.46992 10.4402 5.38068 11.351 6.50013 11.351C7.61957 11.351 8.53034 10.4402 8.53034 9.32074C8.53034 8.20126 7.6196 7.29053 6.50013 7.29053ZM6.50013 10.5751C5.80844 10.5751 5.24575 10.0124 5.24575 9.32071C5.24575 8.62905 5.80846 8.06634 6.50013 8.06634C7.19179 8.06634 7.7545 8.62905 7.7545 9.32071C7.7545 10.0124 7.19179 10.5751 6.50013 10.5751Z" fill="#334C5C"/>
  </g>
  <defs>
    <clipPath id="clip0">
      <rect width="13" height="13" fill="white"/>
    </clipPath>
  </defs>
</svg>
