<svg viewBox="0 0 41 27" fill="none" xmlns="http://www.w3.org/2000/svg">
  <path d="M38.1298 11.5271L37.0681 7.28015C37.3584 7.21849 37.5762 6.96096 37.5762 6.65242V5.96767C37.5762 4.48094 36.3666 3.27144 34.88 3.27144H30.0439V1.85902C30.0439 1.12743 29.4487 0.532288 28.7171 0.532288H4.06573C3.33413 0.532288 2.73899 1.12743 2.73899 1.85902V13.5C2.73899 13.8545 3.02639 14.142 3.38098 14.142C3.73548 14.142 4.02296 13.8546 4.02296 13.5V1.85902C4.02296 1.8354 4.0421 1.81626 4.06573 1.81626H28.7171C28.7407 1.81626 28.7598 1.8354 28.7598 1.85902V13.5001C28.7598 13.8546 29.0472 14.1421 29.4018 14.1421C29.7563 14.1421 30.0438 13.8547 30.0438 13.5001V12.7724H37.6167C37.6173 12.7724 37.6178 12.7725 37.6184 12.7725C37.619 12.7725 37.6196 12.7725 37.6201 12.7725C38.552 12.7731 39.3433 13.3847 39.615 14.2276H37.6189C37.2644 14.2276 36.9769 14.515 36.9769 14.8696V16.2391C36.9769 17.3482 37.8792 18.2505 38.9884 18.2505H39.7159V21.0751H38.0373C37.4859 19.4829 35.9724 18.3361 34.195 18.3361C32.4177 18.3361 30.9041 19.4829 30.3527 21.0751H30.0436V16.239C30.0436 15.8845 29.7562 15.597 29.4016 15.597C29.0471 15.597 28.7597 15.8844 28.7597 16.239V21.075H15.4404C14.889 19.4828 13.3755 18.3359 11.5981 18.3359C9.82078 18.3359 8.30714 19.4828 7.75581 21.075H4.06573C4.0421 21.075 4.02296 21.0558 4.02296 21.0322V19.6199H6.8048C7.1593 19.6199 7.44679 19.3325 7.44679 18.9779C7.44679 18.6233 7.15938 18.3359 6.8048 18.3359H0.641986C0.28748 18.3359 0 18.6233 0 18.9779C0 19.3325 0.2874 19.6199 0.641986 19.6199H2.73907V21.0322C2.73907 21.7638 3.33421 22.3589 4.06581 22.3589H7.53351C7.53335 22.3732 7.53239 22.3874 7.53239 22.4017C7.53239 24.6436 9.35633 26.4674 11.5981 26.4674C13.8399 26.4674 15.6638 24.6436 15.6638 22.4017C15.6638 22.3873 15.6629 22.3732 15.6627 22.3589H30.1304C30.1303 22.3732 30.1293 22.3874 30.1293 22.4017C30.1293 24.6436 31.9533 26.4674 34.195 26.4674C36.4368 26.4674 38.2608 24.6436 38.2608 22.4017C38.2608 22.3873 38.2598 22.3732 38.2596 22.3589H40.3579C40.7124 22.3589 40.9999 22.0715 40.9999 21.717V14.8694C41 13.1788 39.7526 11.7741 38.1298 11.5271ZM30.0439 4.55533H34.88C35.6587 4.55533 36.2923 5.18891 36.2923 5.96767V6.01043H30.0439V4.55533ZM30.0439 11.4885V7.29433H35.7482L36.7968 11.4885H30.0439ZM11.5981 25.1837C10.0642 25.1837 8.81628 23.9358 8.81628 22.4019C8.81628 20.8679 10.0642 19.62 11.5981 19.62C13.132 19.62 14.3799 20.8679 14.3799 22.4019C14.3799 23.9358 13.132 25.1837 11.5981 25.1837ZM34.1952 25.1837C32.6613 25.1837 31.4134 23.9358 31.4134 22.4019C31.4134 20.8679 32.6613 19.62 34.1952 19.62C35.7291 19.62 36.977 20.8679 36.977 22.4019C36.977 23.9358 35.7291 25.1837 34.1952 25.1837ZM39.7161 16.9666H38.9885C38.5873 16.9666 38.2609 16.6402 38.2609 16.239V15.5114H39.716V16.9666H39.7161Z" fill="#048EEA"/>
  <path d="M11.5981 21.0751C10.8665 21.0751 10.2714 21.6703 10.2714 22.4019C10.2714 23.1335 10.8665 23.7286 11.5981 23.7286C12.3297 23.7286 12.9249 23.1335 12.9249 22.4019C12.9249 21.6703 12.3297 21.0751 11.5981 21.0751Z" fill="#048EEA"/>
  <path d="M34.1952 21.0751C33.4636 21.0751 32.8685 21.6703 32.8685 22.4019C32.8685 23.1335 33.4636 23.7286 34.1952 23.7286C34.9268 23.7286 35.5219 23.1335 35.5219 22.4019C35.5219 21.6703 34.9268 21.0751 34.1952 21.0751Z" fill="#048EEA"/>
  <path d="M26.6628 18.3361H17.0762C16.7217 18.3361 16.4342 18.6235 16.4342 18.9781C16.4342 19.3327 16.7216 19.6201 17.0762 19.6201H26.6628C27.0173 19.6201 27.3048 19.3327 27.3048 18.9781C27.3048 18.6235 27.0174 18.3361 26.6628 18.3361Z" fill="#048EEA"/>
  <path d="M10.2286 15.597H2.01148C1.65697 15.597 1.36949 15.8844 1.36949 16.239C1.36949 16.5936 1.65689 16.881 2.01148 16.881H10.2286C10.5831 16.881 10.8706 16.5936 10.8706 16.239C10.8706 15.8844 10.5831 15.597 10.2286 15.597Z" fill="#048EEA"/>
  <path d="M22.3235 6.88316C22.0728 6.63252 21.6663 6.63252 21.4156 6.88324L15.7067 12.5921L12.7368 9.62223C12.4861 9.37151 12.0796 9.37151 11.829 9.62223C11.5783 9.87296 11.5783 10.2794 11.829 10.5301L15.2528 13.9539C15.3781 14.0793 15.5425 14.1419 15.7067 14.1419C15.8709 14.1419 16.0353 14.0793 16.1606 13.9539L22.3234 7.79109C22.5741 7.54028 22.5741 7.13389 22.3235 6.88316Z" fill="#048EEA"/>
</svg>
