<svg viewBox="0 0 35 45" fill="none" xmlns="http://www.w3.org/2000/svg">
  <path d="M4.40427 16.6992C4.40427 23.9688 10.3184 29.8829 17.5879 29.8829C24.8574 29.8829 30.7715 23.9688 30.7715 16.6992C30.7715 9.42971 24.8574 3.51562 17.5879 3.51562C10.3184 3.51562 4.40427 9.42971 4.40427 16.6992ZM17.5879 5.27344C23.8882 5.27344 29.0137 10.3989 29.0137 16.6992C29.0137 22.9996 23.8882 28.125 17.5879 28.125C11.2876 28.125 6.16208 22.9996 6.16208 16.6992C6.16208 10.3989 11.2876 5.27344 17.5879 5.27344Z" fill="#0090F0"/>
  <path d="M9.44837 15.1323L12.8552 18.489L12.0714 23.2066C12.0168 23.5351 12.1524 23.8661 12.4219 24.0618C12.6911 24.2575 13.0478 24.2839 13.3434 24.1308L17.5879 21.9267L21.8321 24.1308C22.1253 24.2829 22.482 24.2592 22.7535 24.0618C23.0231 23.8661 23.1587 23.5351 23.1041 23.2066L22.3203 18.489L25.7271 15.1323C25.9643 14.8988 26.0491 14.5514 25.9461 14.2345C25.8431 13.9179 25.5702 13.6869 25.2409 13.6371L20.513 12.9254L18.3738 8.64724C18.2251 8.34958 17.9206 8.16144 17.5879 8.16144C17.2549 8.16144 16.9507 8.34958 16.8017 8.64724L14.6624 12.9254L9.93452 13.6371C9.60527 13.6865 9.33233 13.9179 9.22933 14.2345C9.12633 14.5514 9.21148 14.8988 9.44837 15.1323ZM15.3755 14.5957C15.6584 14.5531 15.9029 14.3756 16.0309 14.1198L17.5879 11.0055L19.1449 14.1198C19.2729 14.3756 19.5174 14.5531 19.8003 14.5957L23.2414 15.1137L20.7616 17.5565C20.558 17.7573 20.4646 18.0447 20.5113 18.3269L21.0819 21.7605L17.9927 20.1565C17.866 20.0906 17.7269 20.0576 17.5879 20.0576C17.4488 20.0576 17.3098 20.0906 17.1828 20.1565L14.0935 21.7605L14.6641 18.3269C14.7112 18.0447 14.6178 17.7573 14.4139 17.5565L11.9344 15.1137L15.3755 14.5957Z" fill="#0090F0"/>
  <path d="M18.4668 0.878908C18.4668 1.36437 18.0733 1.75782 17.5879 1.75782C17.1024 1.75782 16.709 1.36437 16.709 0.878908C16.709 0.393448 17.1024 0 17.5879 0C18.0733 0 18.4668 0.393448 18.4668 0.878908Z" fill="#0090F0"/>
  <path d="M13.4457 0.518101C6.05222 2.40535 0.888641 9.0593 0.888641 16.6993C0.888641 21.4443 2.88369 25.9154 6.38593 29.0819L1.09086 38.4138C0.92057 38.7142 0.941856 39.0863 1.1451 39.3651C1.34835 39.6442 1.69579 39.7785 2.03397 39.7081L8.04728 38.4594L10.1608 44.4151C10.2754 44.7392 10.569 44.9661 10.9116 44.9967C11.2543 45.0272 11.5828 44.8545 11.7528 44.5555L17.5879 34.297L23.4227 44.5555C23.5799 44.8319 23.8724 44.9997 24.1862 44.9997C24.212 44.9997 24.2381 44.9987 24.2638 44.9967C24.6064 44.9661 24.9 44.7388 25.015 44.4151L27.1282 38.4594L33.1415 39.7081C33.4793 39.7781 33.8271 39.6439 34.0303 39.3651C34.2339 39.0863 34.2549 38.7142 34.0846 38.4138L28.7895 29.0819C32.2917 25.9154 34.2868 21.4443 34.2868 16.6993C34.2868 9.0593 29.1232 2.40535 21.7301 0.518101C21.2594 0.397938 20.7811 0.681866 20.661 1.15222C20.5408 1.62257 20.8247 2.10116 21.2951 2.22133C27.9096 3.90979 32.5293 9.86336 32.5293 16.6993C32.5293 25.019 25.7724 31.6407 17.5879 31.6407C9.39757 31.6407 2.64646 25.0135 2.64646 16.6993C2.64646 9.86336 7.26587 3.90979 13.8803 2.22133C14.3507 2.10116 14.6346 1.62257 14.5148 1.15222C14.3946 0.681866 13.9164 0.397938 13.4457 0.518101ZM11.1749 42.0166L9.44769 37.1493C9.30075 36.7353 8.87091 36.4932 8.44072 36.5825L3.57824 37.5922L7.76884 30.2066C10.2123 31.983 13.1055 33.0651 16.114 33.3329L11.1749 42.0166ZM26.7347 36.5825C26.3049 36.4932 25.8747 36.7353 25.7277 37.1493L24.0008 42.0166L19.0614 33.3329C22.0703 33.0651 24.9632 31.983 27.4069 30.2066L31.5975 37.5922L26.7347 36.5825Z" fill="#0090F0"/>
</svg>
